<svg width="95" height="114" viewBox="0 0 95 114" fill="none" xmlns="http://www.w3.org/2000/svg">
<g filter="url(#filter0_d)">
<path d="M8.89653 44.4323C7.93102 44.3978 7.10345 45.1219 7.06897 46.0874C7.03449 46.7081 7 47.3289 7 47.9495C7 48.915 7.79309 49.6737 8.72412 49.6737H8.75859C9.7241 49.6737 10.5172 48.8805 10.5172 47.915C10.5172 47.3633 10.5517 46.8116 10.5862 46.2598C10.6206 45.2943 9.86204 44.4667 8.89653 44.4323Z" fill="black"/>
<path d="M10.655 35.8806C9.72397 35.6393 8.75846 36.1564 8.51708 37.122C8.34467 37.7082 8.20675 38.2944 8.06882 38.8806C7.86192 39.8116 8.44813 40.7771 9.41364 40.984C9.55157 41.0184 9.65501 41.0185 9.79294 41.0185C10.6205 41.0185 11.3102 40.4668 11.4826 39.6392C11.6205 39.0875 11.7584 38.5702 11.8964 38.0185C12.1377 37.0875 11.586 36.122 10.655 35.8806Z" fill="black"/>
<path d="M14.207 27.9152C13.345 27.4669 12.276 27.7773 11.8278 28.6393C11.5519 29.1566 11.276 29.7083 11.0002 30.26C10.5864 31.1221 10.9657 32.1565 11.8278 32.5703C12.0691 32.6738 12.3105 32.7427 12.5864 32.7427C13.276 32.7427 13.8622 32.329 14.1726 31.7428C14.4139 31.26 14.6553 30.7428 14.9312 30.26C15.3794 29.3979 15.0691 28.3635 14.207 27.9152Z" fill="black"/>
<path d="M18.5519 24.6393C18.8967 24.191 19.2415 23.7772 19.5863 23.3289C20.207 22.6048 20.1036 21.5014 19.3794 20.8807C18.6553 20.2601 17.5519 20.329 16.9312 21.0532C16.5174 21.5359 16.1381 21.9842 15.7933 22.5014C15.2071 23.26 15.345 24.3634 16.1036 24.9496C16.8622 25.5703 17.9657 25.4324 18.5519 24.6393Z" fill="black"/>
<path d="M24.3449 18.6394C24.7587 18.2601 25.2069 17.9153 25.6552 17.6049C26.4138 17.0187 26.5517 15.9153 25.9655 15.1567C25.3793 14.398 24.2759 14.2601 23.5173 14.8118C23.0345 15.1911 22.5518 15.5705 22.069 15.9498C21.3449 16.5705 21.2415 17.6739 21.8966 18.4325C22.5518 19.1566 23.6207 19.2256 24.3449 18.6394Z" fill="black"/>
<path d="M30.4833 14.1913C30.7592 14.1913 31.035 14.1224 31.2764 13.9845C31.7591 13.7086 32.2764 13.4672 32.7936 13.2603C33.6557 12.8465 34.035 11.8121 33.6212 10.95C33.2074 10.0879 32.173 9.67414 31.3109 10.0879C30.7592 10.3638 30.2075 10.6396 29.6557 10.9155C28.7937 11.3637 28.4833 12.3982 28.9316 13.2603C29.2419 13.8465 29.8281 14.1913 30.4833 14.1913Z" fill="black"/>
<path d="M38.6204 11.0533C38.7583 11.0533 38.9307 11.0188 39.0686 10.9843C39.5858 10.8463 40.1376 10.7085 40.6893 10.605C41.6203 10.3981 42.2065 9.46707 42.0341 8.50156C41.8272 7.57054 40.8962 6.98437 39.9652 7.15678C39.379 7.29471 38.7928 7.43266 38.1721 7.60507C37.2411 7.84645 36.6893 8.81194 36.9307 9.74296C37.1376 10.5016 37.8273 11.0533 38.6204 11.0533Z" fill="black"/>
<path d="M49.0009 6.12231C48.3802 6.12231 47.7595 6.15675 47.1733 6.15675C46.0354 6.19123 45.2078 7.32916 45.5871 8.50156C45.8285 9.19121 46.5181 9.6395 47.2767 9.6395H47.3112C47.8629 9.60502 48.4147 9.60498 49.0009 9.60498C70.242 9.63947 87.4487 26.8462 87.4832 48.0874C87.4832 49.0529 88.2763 49.846 89.2418 49.846C90.2073 49.846 91.0004 49.0529 91.0004 48.0874C90.9659 24.9497 72.173 6.1568 49.0009 6.12231Z" fill="black"/>
<path d="M49.4144 35.984C46.5868 35.984 43.7593 36.8461 41.2766 38.6047L37.6214 34.6737C37.2766 34.2944 36.7939 34.122 36.3456 34.122C35.9318 34.122 35.4835 34.2599 35.1732 34.5703C34.4491 35.2254 34.4146 36.3288 35.0697 37.053L38.7249 40.9839C34.1732 46.3632 34.3456 54.3287 39.1387 59.501C41.8973 62.4665 45.6558 63.9837 49.4144 63.9837C52.7937 63.9837 56.2074 62.7424 58.897 60.2596C64.0694 55.4666 64.897 47.5701 60.7936 41.846C58.0695 38.0184 53.7592 35.984 49.4144 35.984ZM56.104 57.2252C54.2764 58.9148 51.8971 59.8459 49.4144 59.8459C46.6213 59.8459 44.0696 58.7079 42.1731 56.6734C38.7938 53.0183 38.6904 47.4322 41.8628 43.6391L42.6559 42.6736L43.6558 41.9495C45.3455 40.7426 47.311 40.1219 49.3799 40.1219C52.5523 40.1219 55.5523 41.6736 57.4143 44.2598C60.3109 48.2597 59.7591 53.8459 56.104 57.2252Z" fill="black"/>
<path d="M48.9996 17.8461C31.7929 17.8461 17.793 31.846 17.793 49.0527C17.793 66.2594 31.7929 80.2592 48.9996 80.2592C66.2063 80.2592 80.2062 66.2594 80.2062 49.0527C80.2062 31.8115 66.2063 17.8461 48.9996 17.8461ZM48.9996 76.0868C34.0687 76.0868 21.9309 63.949 21.9309 49.0182C21.9309 34.0873 34.0687 21.9495 48.9996 21.9495C63.9305 21.9495 76.0683 34.0873 76.0683 49.0182C76.0683 63.949 63.9305 76.0868 48.9996 76.0868Z" fill="black"/>
<path d="M20.9765 11.4533L20.948 11.3966C20.8628 11.0848 20.6355 10.8014 20.3513 10.6314C20.0671 10.4613 19.6977 10.4047 19.3851 10.5181L18.4188 10.7731C18.3336 10.8014 18.2199 10.7731 18.1631 10.7448L14.9803 8.93095L18.1063 7.11716C18.1915 7.06048 18.3052 7.06049 18.362 7.06049L19.3566 7.31553C19.6977 7.40056 20.0387 7.37224 20.3229 7.2022C20.607 7.03215 20.8344 6.74869 20.9196 6.43694C21.0049 6.09685 20.9765 5.75679 20.806 5.47338C20.6354 5.18997 20.3513 4.96322 20.0387 4.8782L19.6408 4.76486L19.7545 4.36812C19.8398 4.02803 19.8113 3.6879 19.6408 3.40449C19.4703 3.12108 19.1862 2.8944 18.8736 2.80937C18.1915 2.63933 17.4811 3.03609 17.3106 3.71627L17.0548 4.67983C17.0264 4.76485 16.9695 4.84986 16.9127 4.8782L13.7583 6.72035V3.12108C13.7583 3.00772 13.8151 2.92268 13.8436 2.89434L14.6109 2.12915C14.8382 1.87409 14.9519 1.56235 14.9519 1.22226C14.9519 0.882172 14.7814 0.570396 14.554 0.343669C14.0709 -0.109783 13.3036 -0.109756 12.7921 0.372038L12.5079 0.655446L12.1953 0.343669C11.9396 0.116943 11.627 -0.0247471 11.286 0.00359369C10.9449 0.00359369 10.6323 0.17368 10.405 0.400406C9.95031 0.8822 9.95031 1.64739 10.4334 2.15752L11.1439 2.86604C11.2007 2.95106 11.2575 3.0361 11.2575 3.09278V6.74872L8.13157 4.93493C8.04631 4.87825 7.98949 4.79317 7.96107 4.73649L7.67689 3.71627C7.59163 3.37618 7.3643 3.12112 7.08012 2.95108C6.79594 2.78103 6.4265 2.72431 6.1139 2.83767C5.77289 2.9227 5.51711 3.14945 5.3466 3.43286C5.17609 3.71627 5.11928 4.08467 5.23295 4.39642L5.3466 4.79323L4.94877 4.90657C4.26674 5.07661 3.86887 5.78513 4.03938 6.46531C4.20989 7.14549 4.92034 7.54225 5.60237 7.3722L6.56858 7.11716C6.65384 7.08882 6.76751 7.11712 6.82435 7.14546L9.97873 8.98761L6.85276 10.8015C6.76751 10.8581 6.65383 10.8581 6.59699 10.8581L5.60237 10.6031C4.92034 10.4047 4.20989 10.8298 4.03938 11.51C3.86887 12.1902 4.26674 12.8987 4.94877 13.0687L5.3466 13.1821L5.23295 13.5789C5.06245 14.2591 5.46028 14.9676 6.14231 15.1376C6.82434 15.3077 7.53479 14.9108 7.7053 14.2307L7.96107 13.2671C7.98949 13.1821 8.04632 13.0971 8.10316 13.0687L11.2575 11.2549V14.8542C11.2575 14.9676 11.2007 15.0525 11.1723 15.0809L10.405 15.8461C9.9219 16.3563 9.9503 17.1781 10.4618 17.6599C10.9449 18.1134 11.7122 18.1133 12.2238 17.6316L12.5079 17.3481L12.8205 17.6599C13.0763 17.8867 13.3889 18 13.7015 18C14.0425 18 14.3835 17.8583 14.6393 17.6033C15.094 17.1215 15.094 16.3563 14.6109 15.8461L13.9004 15.1376C13.8436 15.0526 13.7867 14.9676 13.7867 14.9109V11.1415L16.9127 12.9553C16.998 13.012 17.0548 13.0971 17.0832 13.1538L17.3674 14.174C17.4526 14.5141 17.68 14.7691 17.9642 14.9392C18.2483 15.1092 18.6178 15.1659 18.9304 15.0526C19.6124 14.8825 20.0102 14.174 19.8397 13.4938L19.7261 13.097L20.1239 12.9837C20.4649 12.8987 20.7491 12.7003 20.9196 12.3885C20.9765 12.1051 21.0333 11.7934 20.9765 11.4533Z" fill="black"/>
<path d="M18.904 103.256V105H10.504V93.8H18.68V95.544H12.584V98.456H17.992V100.168H12.584V103.256H18.904Z" fill="black"/>
<path d="M25.8787 96.36C26.9561 96.36 27.8201 96.6747 28.4708 97.304C29.1214 97.9333 29.4468 98.8667 29.4468 100.104V105H27.4468V100.36C27.4468 99.6133 27.2708 99.0533 26.9188 98.68C26.5668 98.296 26.0654 98.104 25.4147 98.104C24.6787 98.104 24.0974 98.328 23.6707 98.776C23.2441 99.2133 23.0308 99.848 23.0308 100.68V105H21.0308V96.456H22.9347V97.56C23.2654 97.1653 23.6814 96.8667 24.1828 96.664C24.6841 96.4613 25.2494 96.36 25.8787 96.36Z" fill="black"/>
<path d="M35.4559 94.632C34.6132 94.632 34.1919 95.0907 34.1919 96.008V96.52H36.5439V98.12H34.2559V105H32.2559V98.12H30.8479V96.52H32.2559V95.976C32.2559 95.0587 32.5225 94.3387 33.0559 93.816C33.5892 93.2827 34.3412 93.016 35.3119 93.016C36.0799 93.016 36.6825 93.1707 37.1199 93.48L36.5599 94.984C36.2185 94.7493 35.8505 94.632 35.4559 94.632Z" fill="black"/>
<path d="M41.0754 97.704C41.6514 96.808 42.6647 96.36 44.1154 96.36V98.264C43.9447 98.232 43.79 98.216 43.6514 98.216C42.8727 98.216 42.2647 98.4453 41.8274 98.904C41.39 99.352 41.1714 100.003 41.1714 100.856V105H39.1714V96.456H41.0754V97.704Z" fill="black"/>
<path d="M45.812 96.456H47.812V105H45.812V96.456ZM46.82 95.048C46.4573 95.048 46.1533 94.936 45.908 94.712C45.6627 94.4773 45.54 94.1893 45.54 93.848C45.54 93.5067 45.6627 93.224 45.908 93C46.1533 92.7653 46.4573 92.648 46.82 92.648C47.1827 92.648 47.4867 92.76 47.732 92.984C47.9773 93.1973 48.1 93.4693 48.1 93.8C48.1 94.152 47.9773 94.4507 47.732 94.696C47.4973 94.9307 47.1933 95.048 46.82 95.048Z" fill="black"/>
<path d="M53.701 96.36C54.9597 96.36 55.9197 96.664 56.581 97.272C57.253 97.8693 57.589 98.776 57.589 99.992V105H55.701V103.96C55.4557 104.333 55.1037 104.621 54.645 104.824C54.197 105.016 53.653 105.112 53.013 105.112C52.373 105.112 51.813 105.005 51.333 104.792C50.853 104.568 50.4797 104.264 50.213 103.88C49.957 103.485 49.829 103.043 49.829 102.552C49.829 101.784 50.1117 101.171 50.677 100.712C51.253 100.243 52.1543 100.008 53.381 100.008H55.589V99.88C55.589 99.2827 55.4077 98.824 55.045 98.504C54.693 98.184 54.165 98.024 53.461 98.024C52.981 98.024 52.5063 98.0987 52.037 98.248C51.5783 98.3973 51.189 98.6053 50.869 98.872L50.085 97.416C50.533 97.0747 51.0717 96.8133 51.701 96.632C52.3303 96.4507 52.997 96.36 53.701 96.36ZM53.429 103.656C53.9303 103.656 54.373 103.544 54.757 103.32C55.1517 103.085 55.429 102.755 55.589 102.328V101.336H53.525C52.373 101.336 51.797 101.715 51.797 102.472C51.797 102.835 51.941 103.123 52.229 103.336C52.517 103.549 52.917 103.656 53.429 103.656Z" fill="black"/>
<path d="M65.0037 96.36C66.0811 96.36 66.9451 96.6747 67.5957 97.304C68.2464 97.9333 68.5717 98.8667 68.5717 100.104V105H66.5718V100.36C66.5718 99.6133 66.3958 99.0533 66.0438 98.68C65.6917 98.296 65.1904 98.104 64.5397 98.104C63.8037 98.104 63.2224 98.328 62.7957 98.776C62.3691 99.2133 62.1558 99.848 62.1558 100.68V105H60.1558V96.456H62.0597V97.56C62.3904 97.1653 62.8064 96.8667 63.3078 96.664C63.8091 96.4613 64.3744 96.36 65.0037 96.36Z" fill="black"/>
<path d="M79.555 93.128V105H77.635V103.896C77.3043 104.301 76.8937 104.605 76.403 104.808C75.923 105.011 75.3897 105.112 74.803 105.112C73.9817 105.112 73.2403 104.931 72.579 104.568C71.9283 104.205 71.4163 103.693 71.043 103.032C70.6697 102.36 70.483 101.592 70.483 100.728C70.483 99.864 70.6697 99.1013 71.043 98.44C71.4163 97.7787 71.9283 97.2667 72.579 96.904C73.2403 96.5413 73.9817 96.36 74.803 96.36C75.3683 96.36 75.8857 96.456 76.355 96.648C76.8243 96.84 77.2243 97.128 77.555 97.512V93.128H79.555ZM75.043 103.4C75.523 103.4 75.955 103.293 76.339 103.08C76.723 102.856 77.027 102.541 77.251 102.136C77.475 101.731 77.587 101.261 77.587 100.728C77.587 100.195 77.475 99.7253 77.251 99.32C77.027 98.9147 76.723 98.6053 76.339 98.392C75.955 98.168 75.523 98.056 75.043 98.056C74.563 98.056 74.131 98.168 73.747 98.392C73.363 98.6053 73.059 98.9147 72.835 99.32C72.611 99.7253 72.499 100.195 72.499 100.728C72.499 101.261 72.611 101.731 72.835 102.136C73.059 102.541 73.363 102.856 73.747 103.08C74.131 103.293 74.563 103.4 75.043 103.4Z" fill="black"/>
<path d="M86.0114 105.112C85.1474 105.112 84.3687 104.925 83.6754 104.552C82.982 104.179 82.438 103.661 82.0434 103C81.6594 102.328 81.4674 101.571 81.4674 100.728C81.4674 99.8853 81.6594 99.1333 82.0434 98.472C82.438 97.8107 82.982 97.2933 83.6754 96.92C84.3687 96.5467 85.1474 96.36 86.0114 96.36C86.886 96.36 87.67 96.5467 88.3634 96.92C89.0567 97.2933 89.5954 97.8107 89.9794 98.472C90.374 99.1333 90.5714 99.8853 90.5714 100.728C90.5714 101.571 90.374 102.328 89.9794 103C89.5954 103.661 89.0567 104.179 88.3634 104.552C87.67 104.925 86.886 105.112 86.0114 105.112ZM86.0114 103.4C86.7474 103.4 87.3554 103.155 87.8354 102.664C88.3154 102.173 88.5554 101.528 88.5554 100.728C88.5554 99.928 88.3154 99.2827 87.8354 98.792C87.3554 98.3013 86.7474 98.056 86.0114 98.056C85.2754 98.056 84.6674 98.3013 84.1874 98.792C83.718 99.2827 83.4834 99.928 83.4834 100.728C83.4834 101.528 83.718 102.173 84.1874 102.664C84.6674 103.155 85.2754 103.4 86.0114 103.4Z" fill="black"/>
</g>
<defs>
<filter id="filter0_d" x="0" y="0" width="95.0004" height="113.112" filterUnits="userSpaceOnUse" color-interpolation-filters="sRGB">
<feFlood flood-opacity="0" result="BackgroundImageFix"/>
<feColorMatrix in="SourceAlpha" type="matrix" values="0 0 0 0 0 0 0 0 0 0 0 0 0 0 0 0 0 0 127 0"/>
<feOffset dy="4"/>
<feGaussianBlur stdDeviation="2"/>
<feColorMatrix type="matrix" values="0 0 0 0 0 0 0 0 0 0 0 0 0 0 0 0 0 0 0.25 0"/>
<feBlend mode="normal" in2="BackgroundImageFix" result="effect1_dropShadow"/>
<feBlend mode="normal" in="SourceGraphic" in2="effect1_dropShadow" result="shape"/>
</filter>
</defs>
</svg>
