<svg width="72" height="56" viewBox="0 0 72 56" fill="none" xmlns="http://www.w3.org/2000/svg">
<g filter="url(#filter0_d)">
<path d="M55.1185 35.427C54.0595 34.4287 52.96 33.3899 52.1303 32.0543C51.3815 30.8469 51.3748 25.4978 51.8335 21.2549C51.847 21.1402 51.847 21.0188 51.8402 20.9041C51.847 20.7422 51.847 20.5871 51.847 20.4387C51.847 13.1941 47.395 7.02875 41.2431 4.8837C41.1487 2.17878 39.0374 0 36.4471 0C33.8636 0 31.7456 2.17878 31.6579 4.8837C25.5128 7.02875 21.0541 13.1941 21.0541 20.4387C21.0541 20.5871 21.0541 20.7422 21.0608 20.9041C21.0473 21.0188 21.0541 21.1402 21.0675 21.2549C21.5262 25.4978 21.5127 30.8469 20.7707 32.0543C19.9411 33.3899 18.8483 34.4287 17.7825 35.427C16.2985 36.8301 14.5312 40.5671 15.2327 42.3411C15.4958 43.0022 16.0759 43.3934 16.7909 43.3934H31.4218C31.867 45.7678 33.9513 47.5688 36.4471 47.5688C38.9497 47.5688 41.034 45.7678 41.4725 43.3934H56.0899H56.1101C56.8723 43.3934 57.4862 42.9887 57.756 42.3006C58.5047 40.4322 56.4946 36.7289 55.1185 35.427ZM36.4471 1.93594C37.7962 1.93594 38.9295 2.96799 39.2263 4.34406C38.3224 4.16868 37.3982 4.07425 36.4471 4.07425C35.496 4.07425 34.5719 4.16868 33.668 4.34406C33.9716 2.96125 35.1048 1.93594 36.4471 1.93594ZM36.4471 45.6396C35.0239 45.6396 33.8097 44.6953 33.4117 43.4002H39.4893C39.0846 44.6953 37.8772 45.6396 36.4471 45.6396ZM55.9887 41.4642H41.4657H40.4742H39.4691H33.4319H32.4269H31.4353H17.0068C16.9933 41.1472 17.0877 40.4659 17.4925 39.4676C17.9309 38.3883 18.565 37.3562 19.1181 36.8368C20.2716 35.7508 21.4588 34.6243 22.4234 33.0729C23.9681 30.5771 23.0507 21.5314 23.0035 21.066L23.0102 20.9986V20.9109C23.0035 20.7422 23.0035 20.5871 23.0035 20.4387C23.0035 14.2531 26.6528 8.96469 31.7591 6.91407C32.0761 6.78591 32.3931 6.67124 32.7237 6.57006C33.0407 6.46888 33.3645 6.38793 33.6883 6.31373C34.5854 6.11137 35.5095 6.00344 36.4606 6.00344C37.4117 6.00344 38.3359 6.11137 39.233 6.31373C39.5568 6.38793 39.8806 6.47562 40.1976 6.57006C40.5214 6.67124 40.8452 6.78591 41.1622 6.91407C46.2752 8.96469 49.9245 14.2531 49.9245 20.4387C49.9245 20.5871 49.9245 20.7422 49.9178 20.9109V20.9986L49.9245 21.066C49.8773 21.5314 48.9599 30.5771 50.5046 33.0729C51.4625 34.6243 52.6564 35.7508 53.8099 36.8368C54.3765 37.3697 55.0376 38.4018 55.4895 39.4608C55.9145 40.4861 56.0089 41.1674 55.9887 41.4642Z" fill="black"/>
<path d="M15.5969 22.125C16.2984 21.6258 16.4671 20.6477 15.9612 19.9395C14.6863 18.1452 14.0117 16.0339 14.0117 13.8214C14.0117 11.7168 14.6323 9.67967 15.7993 7.93934C16.2849 7.22433 16.0893 6.24624 15.3743 5.76731C14.6593 5.28164 13.6812 5.47726 13.2023 6.19227C11.6845 8.45874 10.8818 11.0962 10.8818 13.8281C10.8818 16.6949 11.7587 19.4336 13.4181 21.7607C13.7217 22.1925 14.2073 22.4218 14.693 22.4218C15.0033 22.4151 15.3203 22.3206 15.5969 22.125Z" fill="black"/>
<path d="M7.79768 13.8282C7.79768 10.5769 8.72855 7.42675 10.4824 4.71509C11.0557 3.83818 10.7994 2.65773 9.92249 2.09111C9.04559 1.51775 7.86514 1.77407 7.29852 2.65098C5.13998 5.97648 4 9.84162 4 13.8282C4 18.2127 5.36258 22.3949 7.93259 25.9295C8.30359 26.4421 8.8837 26.712 9.47055 26.712C9.85504 26.712 10.2463 26.5905 10.5903 26.3477C11.4402 25.7271 11.6223 24.5399 11.0085 23.6967C8.90393 20.8097 7.79768 17.4033 7.79768 13.8282Z" fill="black"/>
<path d="M56.5008 5.62575C55.7926 6.11817 55.6104 7.09625 56.1096 7.80453C57.3373 9.57183 57.9848 11.6494 57.9848 13.8147C57.9848 15.9125 57.371 17.9429 56.2108 19.6765C55.7318 20.3983 55.9207 21.3696 56.6425 21.8485C56.9123 22.0307 57.2158 22.1116 57.5126 22.1116C58.0185 22.1116 58.511 21.8688 58.8145 21.4168C60.3255 19.1638 61.1214 16.5331 61.1214 13.808C61.1214 11.0019 60.2783 8.31043 58.6863 6.01698C58.1872 5.31546 57.2091 5.13333 56.5008 5.62575Z" fill="black"/>
<path d="M64.8699 2.92071C64.3167 2.03031 63.143 1.7605 62.2526 2.32037C61.3622 2.87349 61.0924 4.0472 61.6523 4.9376C63.3117 7.5953 64.1953 10.6645 64.1953 13.8146C64.1953 16.8096 63.3994 19.7506 61.8816 22.3206C61.3487 23.2245 61.6523 24.3914 62.5562 24.9176C62.8597 25.093 63.1903 25.1807 63.5208 25.1807C64.1683 25.1807 64.8024 24.8434 65.1599 24.243C67.0149 21.0929 67.9997 17.4841 67.9997 13.8146C67.9863 9.94946 66.9137 6.1855 64.8699 2.92071Z" fill="black"/>
</g>
<defs>
<filter id="filter0_d" x="0" y="0" width="71.9997" height="55.5688" filterUnits="userSpaceOnUse" color-interpolation-filters="sRGB">
<feFlood flood-opacity="0" result="BackgroundImageFix"/>
<feColorMatrix in="SourceAlpha" type="matrix" values="0 0 0 0 0 0 0 0 0 0 0 0 0 0 0 0 0 0 127 0"/>
<feOffset dy="4"/>
<feGaussianBlur stdDeviation="2"/>
<feColorMatrix type="matrix" values="0 0 0 0 0 0 0 0 0 0 0 0 0 0 0 0 0 0 0.25 0"/>
<feBlend mode="normal" in2="BackgroundImageFix" result="effect1_dropShadow"/>
<feBlend mode="normal" in="SourceGraphic" in2="effect1_dropShadow" result="shape"/>
</filter>
</defs>
</svg>
