<svg width="104" height="116" viewBox="0 0 104 116" fill="none" xmlns="http://www.w3.org/2000/svg">
<g filter="url(#filter0_d)">
<path d="M9.90866 46.8287C8.93703 46.7593 8.10419 47.5227 8.06949 48.4944C8.03479 49.119 8.0001 49.7437 8.0001 50.3683C8.0001 51.3399 8.79823 52.1033 9.73516 52.1033H9.76985C10.7415 52.1033 11.5396 51.3052 11.5396 50.3336C11.5396 49.7783 11.5743 49.2231 11.609 48.6679C11.609 47.6963 10.8803 46.8634 9.90866 46.8287Z" fill="black"/>
<path d="M11.6443 38.327C10.7073 38.0841 9.73567 38.6047 9.49276 39.5763C9.31926 40.1662 9.18048 40.7562 9.04167 41.3461C8.83347 42.283 9.42339 43.2546 10.395 43.4628C10.5338 43.4975 10.6379 43.4975 10.7767 43.4975C11.6096 43.4975 12.3036 42.9423 12.4771 42.1095C12.6159 41.5543 12.7547 41.0338 12.8935 40.4785C13.1364 39.5416 12.5812 38.5699 11.6443 38.327Z" fill="black"/>
<path d="M15.2533 30.3111C14.3858 29.86 13.31 30.1722 12.8589 31.0397C12.5813 31.5603 12.3037 32.1155 12.0261 32.6708C11.6097 33.5383 11.9914 34.5793 12.8589 34.9957C13.1018 35.0998 13.3447 35.1692 13.6223 35.1692C14.3163 35.1692 14.9062 34.7528 15.2186 34.1628C15.4615 33.677 15.7044 33.1566 15.982 32.6708C16.4331 31.8032 16.0861 30.7622 15.2533 30.3111Z" fill="black"/>
<path d="M19.6253 27.0144C19.9723 26.5633 20.3193 26.1469 20.6663 25.6958C21.291 24.967 21.1869 23.8566 20.4581 23.232C19.7294 22.6073 18.6189 22.6767 17.9943 23.4055C17.5779 23.8913 17.1962 24.3425 16.8492 24.863C16.2593 25.6264 16.3981 26.7368 17.1615 27.3267C17.8903 27.9513 19.0354 27.7779 19.6253 27.0144Z" fill="black"/>
<path d="M25.4546 20.9764C25.871 20.5947 26.3221 20.2477 26.7732 19.9354C27.5367 19.3455 27.6755 18.2351 27.0856 17.4717C26.4956 16.7083 25.3852 16.5695 24.6218 17.1247C24.136 17.5064 23.6501 17.8881 23.1643 18.2698C22.4356 18.8945 22.3315 20.0049 22.9908 20.7683C23.6154 21.497 24.6912 21.5664 25.4546 20.9764Z" fill="black"/>
<path d="M31.6322 16.4999C31.9098 16.4999 32.1874 16.4305 32.4303 16.2917C32.9162 16.0141 33.4366 15.7712 33.9572 15.563C34.8247 15.1466 35.2064 14.1056 34.79 13.2381C34.3736 12.3705 33.3326 11.9888 32.465 12.3705C31.9098 12.6482 31.3546 12.9257 30.7994 13.2033C29.9318 13.6545 29.6195 14.6955 30.0707 15.563C30.3483 16.1182 30.9729 16.4999 31.6322 16.4999Z" fill="black"/>
<path d="M39.8212 13.3076C39.96 13.3076 40.1336 13.2729 40.2724 13.2382C40.7929 13.0994 41.3481 12.9606 41.9033 12.8565C42.8402 12.6483 43.4302 11.7113 43.2567 10.7397C43.0484 9.80275 42.1115 9.17817 41.1746 9.38637C40.5847 9.52518 39.9601 9.664 39.3701 9.8375C38.4332 10.0804 37.878 11.052 38.1209 11.989C38.3291 12.7871 39.0231 13.3076 39.8212 13.3076Z" fill="black"/>
<path d="M50.2655 8.27588C49.6408 8.27588 49.0162 8.31053 48.4263 8.31053C47.2812 8.34523 46.4484 9.49038 46.8301 10.6702C47.073 11.3642 47.767 11.8154 48.5304 11.8154H48.5651C49.1203 11.7807 49.6755 11.7806 50.2655 11.7806C71.6413 11.8153 88.9572 29.1312 88.9919 50.5071C88.9919 51.4787 89.79 52.2769 90.7616 52.2769C91.7333 52.2769 92.5314 51.4787 92.5314 50.5071C92.462 27.2227 73.5846 8.31058 50.2655 8.27588Z" fill="black"/>
<path d="M64.0772 37.3901C63.6608 37.3901 63.2096 37.529 62.8973 37.8413L58.9414 41.5196C56.3041 39.2987 53.0769 38.223 49.8844 38.223C46.449 38.223 43.0136 39.4722 40.3416 41.9707C34.616 47.2452 34.269 56.1634 39.5782 61.8544C42.3196 64.8387 46.102 66.4003 49.9191 66.4003C52.7646 66.4003 55.6448 65.5327 58.1086 63.763C64.4242 59.2518 65.8816 50.4378 61.3705 44.1222L65.3264 40.4438C66.0551 39.7845 66.0899 38.6741 65.4305 37.9454C65.0141 37.5984 64.563 37.3901 64.0772 37.3901ZM59.6354 53.9425C59.1843 56.5451 57.7616 58.8354 55.6101 60.397C53.9098 61.6115 51.9318 62.2361 49.8497 62.2361C47.0736 62.2361 44.4364 61.0563 42.5625 59.0437C38.8495 55.0183 39.0924 48.7374 43.1177 45.0244C44.9569 43.324 47.3513 42.3871 49.8497 42.3871C52.1747 42.3871 54.465 43.2199 56.2347 44.7121L57.2063 45.5102L57.9351 46.5165C59.462 48.7027 60.0518 51.3399 59.6354 53.9425Z" fill="black"/>
<path d="M50.2663 20.1784C32.9504 20.1784 18.8618 34.267 18.8618 51.5828C18.8618 68.8987 32.9504 82.9873 50.2663 82.9873C67.5821 82.9873 81.6708 68.8987 81.6708 51.5828C81.6361 34.2323 67.5474 20.1784 50.2663 20.1784ZM50.2663 78.7885C35.2407 78.7885 23.0259 66.5737 23.0259 51.5481C23.0259 36.5225 35.2407 24.3078 50.2663 24.3078C65.2919 24.3078 77.5066 36.5225 77.5066 51.5481C77.4719 66.5737 65.2572 78.7885 50.2663 78.7885Z" fill="black"/>
<path d="M90.7914 5.06256C89.2745 3.0876 87.4951 1.33519 86.4742 0.556327C86.0074 0.194715 85.424 0 84.8115 0C83.4988 0 82.3612 0.94577 82.1861 2.16969C81.9236 3.94994 81.1068 4.86788 80.0859 6.06398C78.8899 7.48261 77.4022 9.23502 77.0522 12.2948C76.6438 15.8553 78.6565 18.6926 82.3903 19.8609C82.6529 19.9444 82.9446 20 83.2363 20C84.1697 20 85.0448 19.4993 85.5116 18.7483C85.9783 19.4993 86.8534 19.9443 87.7577 19.9443C88.0202 19.9443 88.2827 19.9165 88.5452 19.8331C91.9582 18.8317 94.0001 16.1335 94.0001 12.6564C94.0001 10.4311 92.9208 7.87202 90.7914 5.06256ZM85.4824 16.1613C85.424 16.0779 85.3657 15.9944 85.3074 15.9388C85.4532 15.911 85.5699 15.911 85.6866 15.8553C85.6282 15.9388 85.5407 16.0501 85.4824 16.1613ZM87.8744 17.719C87.8452 17.719 87.816 17.7468 87.7868 17.7468C87.5243 17.7468 87.3785 17.4409 87.5535 17.2461C88.0494 16.662 88.6619 15.6885 88.6911 14.4923C88.7203 13.0181 87.5826 11.4882 86.8534 10.6815C86.7951 10.5981 86.7075 10.5702 86.62 10.5702C86.445 10.5702 86.2991 10.6815 86.2991 10.8762C86.27 11.7385 86.0658 13.1015 85.249 13.6579C85.1907 13.6857 85.1324 13.7135 85.074 13.7135C85.0157 13.7135 84.9573 13.7135 84.9282 13.6856C84.6656 13.5466 84.1114 13.2684 83.7322 12.9902C83.6738 12.9346 83.5863 12.9346 83.528 12.9346C83.4113 12.9346 83.2946 12.9903 83.2363 13.1015C82.8571 13.8804 82.157 15.7719 83.528 17.3018C83.703 17.5243 83.5571 17.8025 83.2946 17.8025C83.2654 17.8025 83.2363 17.8025 83.1779 17.7747C81.5736 17.274 79.0649 15.9388 79.4441 12.5452C79.9692 7.76079 83.8197 7.28793 84.5489 2.4757C84.5781 2.3088 84.7239 2.19753 84.8698 2.19753C84.9281 2.19753 85.0157 2.22534 85.074 2.25315C86.5617 3.39362 91.7248 8.53962 91.7248 12.6564C91.6665 16.0779 89.3037 17.3018 87.8744 17.719Z" fill="black"/>
<path d="M10.6881 107.16C9.55744 107.16 8.53344 106.915 7.6161 106.424C6.70943 105.923 5.99477 105.235 5.4721 104.36C4.9601 103.485 4.7041 102.499 4.7041 101.4C4.7041 100.301 4.96543 99.3147 5.4881 98.44C6.01077 97.5653 6.72544 96.8827 7.6321 96.392C8.54944 95.8907 9.57344 95.64 10.7041 95.64C11.6214 95.64 12.4588 95.8 13.2161 96.12C13.9734 96.44 14.6134 96.904 15.1361 97.512L13.7921 98.776C12.9814 97.9013 11.9841 97.464 10.8001 97.464C10.0321 97.464 9.3441 97.6347 8.7361 97.976C8.1281 98.3067 7.65343 98.7707 7.3121 99.368C6.97077 99.9653 6.8001 100.643 6.8001 101.4C6.8001 102.157 6.97077 102.835 7.3121 103.432C7.65343 104.029 8.1281 104.499 8.7361 104.84C9.3441 105.171 10.0321 105.336 10.8001 105.336C11.9841 105.336 12.9814 104.893 13.7921 104.008L15.1361 105.288C14.6134 105.896 13.9681 106.36 13.2001 106.68C12.4428 107 11.6054 107.16 10.6881 107.16Z" fill="black"/>
<path d="M20.123 98.36C21.3816 98.36 22.3416 98.664 23.003 99.272C23.675 99.8693 24.011 100.776 24.011 101.992V107H22.123V105.96C21.8776 106.333 21.5256 106.621 21.067 106.824C20.619 107.016 20.075 107.112 19.435 107.112C18.795 107.112 18.235 107.005 17.755 106.792C17.275 106.568 16.9016 106.264 16.635 105.88C16.379 105.485 16.251 105.043 16.251 104.552C16.251 103.784 16.5336 103.171 17.099 102.712C17.675 102.243 18.5763 102.008 19.803 102.008H22.011V101.88C22.011 101.283 21.8296 100.824 21.467 100.504C21.115 100.184 20.587 100.024 19.883 100.024C19.403 100.024 18.9283 100.099 18.459 100.248C18.0003 100.397 17.611 100.605 17.291 100.872L16.507 99.416C16.955 99.0747 17.4936 98.8133 18.123 98.632C18.7523 98.4507 19.419 98.36 20.123 98.36ZM19.851 105.656C20.3523 105.656 20.795 105.544 21.179 105.32C21.5736 105.085 21.851 104.755 22.011 104.328V103.336H19.947C18.795 103.336 18.219 103.715 18.219 104.472C18.219 104.835 18.363 105.123 18.651 105.336C18.939 105.549 19.339 105.656 19.851 105.656Z" fill="black"/>
<path d="M26.5777 95.128H28.5777V107H26.5777V95.128Z" fill="black"/>
<path d="M39.2347 102.776C39.2347 102.915 39.2241 103.112 39.2027 103.368H32.4987C32.6161 103.997 32.9201 104.499 33.4107 104.872C33.9121 105.235 34.5307 105.416 35.2667 105.416C36.2054 105.416 36.9787 105.107 37.5867 104.488L38.6587 105.72C38.2747 106.179 37.7894 106.525 37.2027 106.76C36.6161 106.995 35.9547 107.112 35.2187 107.112C34.2801 107.112 33.4534 106.925 32.7387 106.552C32.0241 106.179 31.4694 105.661 31.0747 105C30.6907 104.328 30.4987 103.571 30.4987 102.728C30.4987 101.896 30.6854 101.149 31.0587 100.488C31.4427 99.816 31.9707 99.2933 32.6427 98.92C33.3147 98.5467 34.0721 98.36 34.9147 98.36C35.7467 98.36 36.4881 98.5467 37.1387 98.92C37.8001 99.2827 38.3121 99.8 38.6747 100.472C39.0481 101.133 39.2347 101.901 39.2347 102.776ZM34.9147 99.96C34.2747 99.96 33.7307 100.152 33.2827 100.536C32.8454 100.909 32.5787 101.411 32.4827 102.04H37.3307C37.2454 101.421 36.9841 100.92 36.5467 100.536C36.1094 100.152 35.5654 99.96 34.9147 99.96Z" fill="black"/>
<path d="M46.0039 98.36C47.0812 98.36 47.9452 98.6747 48.5959 99.304C49.2465 99.9333 49.5719 100.867 49.5719 102.104V107H47.5718V102.36C47.5718 101.613 47.3959 101.053 47.0438 100.68C46.6918 100.296 46.1905 100.104 45.5399 100.104C44.8039 100.104 44.2225 100.328 43.7959 100.776C43.3692 101.213 43.1559 101.848 43.1559 102.68V107H41.1559V98.456H43.0599V99.56C43.3905 99.1653 43.8065 98.8667 44.3078 98.664C44.8092 98.4613 45.3745 98.36 46.0039 98.36Z" fill="black"/>
<path d="M57.245 106.536C57.0103 106.728 56.7223 106.872 56.381 106.968C56.0503 107.064 55.6983 107.112 55.325 107.112C54.3863 107.112 53.661 106.867 53.149 106.376C52.637 105.885 52.381 105.171 52.381 104.232V100.12H50.973V98.52H52.381V96.568H54.381V98.52H56.669V100.12H54.381V104.184C54.381 104.6 54.4823 104.92 54.685 105.144C54.8876 105.357 55.181 105.464 55.565 105.464C56.013 105.464 56.3863 105.347 56.685 105.112L57.245 106.536Z" fill="black"/>
<path d="M62.1542 98.36C63.4129 98.36 64.3729 98.664 65.0342 99.272C65.7062 99.8693 66.0422 100.776 66.0422 101.992V107H64.1542V105.96C63.9089 106.333 63.5569 106.621 63.0982 106.824C62.6502 107.016 62.1062 107.112 61.4662 107.112C60.8262 107.112 60.2662 107.005 59.7862 106.792C59.3062 106.568 58.9329 106.264 58.6662 105.88C58.4102 105.485 58.2822 105.043 58.2822 104.552C58.2822 103.784 58.5649 103.171 59.1302 102.712C59.7062 102.243 60.6076 102.008 61.8342 102.008H64.0422V101.88C64.0422 101.283 63.8609 100.824 63.4982 100.504C63.1462 100.184 62.6182 100.024 61.9142 100.024C61.4342 100.024 60.9596 100.099 60.4902 100.248C60.0316 100.397 59.6422 100.605 59.3222 100.872L58.5382 99.416C58.9862 99.0747 59.5249 98.8133 60.1542 98.632C60.7836 98.4507 61.4502 98.36 62.1542 98.36ZM61.8822 105.656C62.3836 105.656 62.8262 105.544 63.2102 105.32C63.6049 105.085 63.8822 104.755 64.0422 104.328V103.336H61.9782C60.8262 103.336 60.2502 103.715 60.2502 104.472C60.2502 104.835 60.3942 105.123 60.6822 105.336C60.9702 105.549 61.3702 105.656 61.8822 105.656Z" fill="black"/>
<path d="M73.457 98.36C74.5343 98.36 75.3983 98.6747 76.049 99.304C76.6996 99.9333 77.025 100.867 77.025 102.104V107H75.025V102.36C75.025 101.613 74.849 101.053 74.497 100.68C74.145 100.296 73.6436 100.104 72.993 100.104C72.257 100.104 71.6756 100.328 71.249 100.776C70.8223 101.213 70.609 101.848 70.609 102.68V107H68.609V98.456H70.513V99.56C70.8436 99.1653 71.2596 98.8667 71.761 98.664C72.2623 98.4613 72.8276 98.36 73.457 98.36Z" fill="black"/>
<path d="M88.0082 95.128V107H86.0882V105.896C85.7576 106.301 85.3469 106.605 84.8562 106.808C84.3762 107.011 83.8429 107.112 83.2562 107.112C82.4349 107.112 81.6936 106.931 81.0322 106.568C80.3816 106.205 79.8696 105.693 79.4962 105.032C79.1229 104.36 78.9362 103.592 78.9362 102.728C78.9362 101.864 79.1229 101.101 79.4962 100.44C79.8696 99.7787 80.3816 99.2667 81.0322 98.904C81.6936 98.5413 82.4349 98.36 83.2562 98.36C83.8216 98.36 84.3389 98.456 84.8082 98.648C85.2776 98.84 85.6776 99.128 86.0082 99.512V95.128H88.0082ZM83.4962 105.4C83.9762 105.4 84.4082 105.293 84.7922 105.08C85.1762 104.856 85.4802 104.541 85.7042 104.136C85.9282 103.731 86.0402 103.261 86.0402 102.728C86.0402 102.195 85.9282 101.725 85.7042 101.32C85.4802 100.915 85.1762 100.605 84.7922 100.392C84.4082 100.168 83.9762 100.056 83.4962 100.056C83.0162 100.056 82.5842 100.168 82.2002 100.392C81.8162 100.605 81.5122 100.915 81.2882 101.32C81.0642 101.725 80.9522 102.195 80.9522 102.728C80.9522 103.261 81.0642 103.731 81.2882 104.136C81.5122 104.541 81.8162 104.856 82.2002 105.08C82.5842 105.293 83.0162 105.4 83.4962 105.4Z" fill="black"/>
<path d="M94.4646 107.112C93.6006 107.112 92.8219 106.925 92.1286 106.552C91.4353 106.179 90.8913 105.661 90.4966 105C90.1126 104.328 89.9206 103.571 89.9206 102.728C89.9206 101.885 90.1126 101.133 90.4966 100.472C90.8913 99.8107 91.4353 99.2933 92.1286 98.92C92.8219 98.5467 93.6006 98.36 94.4646 98.36C95.3393 98.36 96.1233 98.5467 96.8166 98.92C97.5099 99.2933 98.0486 99.8107 98.4326 100.472C98.8273 101.133 99.0246 101.885 99.0246 102.728C99.0246 103.571 98.8273 104.328 98.4326 105C98.0486 105.661 97.5099 106.179 96.8166 106.552C96.1233 106.925 95.3393 107.112 94.4646 107.112ZM94.4646 105.4C95.2006 105.4 95.8086 105.155 96.2886 104.664C96.7686 104.173 97.0086 103.528 97.0086 102.728C97.0086 101.928 96.7686 101.283 96.2886 100.792C95.8086 100.301 95.2006 100.056 94.4646 100.056C93.7286 100.056 93.1206 100.301 92.6406 100.792C92.1713 101.283 91.9366 101.928 91.9366 102.728C91.9366 103.528 92.1713 104.173 92.6406 104.664C93.1206 105.155 93.7286 105.4 94.4646 105.4Z" fill="black"/>
</g>
<defs>
<filter id="filter0_d" x="0.704102" y="0" width="102.321" height="115.16" filterUnits="userSpaceOnUse" color-interpolation-filters="sRGB">
<feFlood flood-opacity="0" result="BackgroundImageFix"/>
<feColorMatrix in="SourceAlpha" type="matrix" values="0 0 0 0 0 0 0 0 0 0 0 0 0 0 0 0 0 0 127 0"/>
<feOffset dy="4"/>
<feGaussianBlur stdDeviation="2"/>
<feColorMatrix type="matrix" values="0 0 0 0 0 0 0 0 0 0 0 0 0 0 0 0 0 0 0.25 0"/>
<feBlend mode="normal" in2="BackgroundImageFix" result="effect1_dropShadow"/>
<feBlend mode="normal" in="SourceGraphic" in2="effect1_dropShadow" result="shape"/>
</filter>
</defs>
</svg>
