<svg width="52" height="74" viewBox="0 0 52 74" fill="none" xmlns="http://www.w3.org/2000/svg">
<g filter="url(#filter0_d)">
<path d="M43.1576 25.9732C45.4257 20.5569 44.9097 14.1774 41.1689 9.05111C35.3105 1.03539 23.7656 -0.901223 15.4456 4.74292C7.1148 10.3871 5.10466 21.5097 10.9631 29.5357C12.1455 31.1513 13.5644 32.508 15.1339 33.6264C14.7146 32.3319 14.2739 30.9649 13.8224 29.5875C13.4569 29.1836 13.1022 28.759 12.7797 28.3033C7.63077 21.2507 9.39367 11.4641 16.714 6.50348C24.0451 1.53249 34.2033 3.24127 39.3523 10.2939C42.0611 14.0014 42.8351 18.4649 41.9214 22.5763C42.2761 23.5602 42.7061 24.7304 43.1576 25.9732ZM15.8541 35.8737C15.7251 35.4698 15.5961 35.0452 15.4563 34.6206C13.5429 33.3882 11.8123 31.8245 10.4149 29.9086C4.34145 21.5925 6.42684 10.0764 15.0479 4.22511C19.2401 1.3875 24.3139 0.289743 29.3446 1.13895C34.3753 1.97781 38.7718 4.67043 41.7171 8.68864C45.7482 14.1982 46.1674 21.1265 43.48 26.8638C43.6198 27.247 43.7595 27.6405 43.8993 28.0237C47.1348 21.8618 46.8446 14.2189 42.4374 8.18119C39.363 3.97656 34.773 1.17002 29.4951 0.289743C24.2279 -0.590536 18.9176 0.548649 14.5426 3.52089C5.51314 9.64142 3.34176 21.6961 9.69466 30.3953C11.3716 32.6944 13.4892 34.5274 15.8541 35.8737ZM17.5632 7.64267C13.5644 10.356 11.4038 14.6228 11.2963 18.9931C11.3823 18.7653 11.4683 18.5374 11.5866 18.3199C12.1778 17.2532 13.1775 16.4662 14.3814 16.1244C15.2306 15.8759 16.1228 15.8759 16.9613 16.0933C16.8538 14.1567 18.1329 12.3133 20.1538 11.7334C21.2825 11.4123 22.4757 11.5262 23.5076 12.0648C24.2171 12.4376 24.7868 12.9865 25.1953 13.6493C25.7328 13.09 26.41 12.6654 27.1839 12.4376C28.3126 12.1166 29.5058 12.2305 30.527 12.769C31.5805 13.3179 32.3329 14.2292 32.6876 15.327L33.4509 17.7814C33.9561 17.2947 34.5795 16.9115 35.3105 16.694C37.6539 16.0209 40.1155 17.3257 40.8249 19.5834C40.8249 19.5834 40.8249 19.5938 40.8357 19.6041C40.9002 16.6629 40.051 13.6803 38.1591 11.1016C33.4616 4.66007 24.2386 3.11699 17.5632 7.64267ZM46.1889 39.3949L39.148 20.0805C38.7181 18.7031 37.2561 17.916 35.8265 18.3303C34.3968 18.7445 33.5583 20.1944 33.9883 21.5718L36.2887 32.7462L31.0107 15.8344C30.5808 14.4571 29.1296 13.67 27.6999 14.0842C26.2702 14.4881 25.4318 15.9484 25.851 17.3257L29.3876 32.4873L23.9806 15.1406C23.5506 13.7632 22.0887 12.9761 20.6591 13.3904C19.2294 13.8046 18.3909 15.2545 18.8209 16.6319L23.1314 34.2685L18.5737 19.6455C18.1007 18.1439 16.4668 17.2947 14.8974 17.74C13.328 18.1957 12.4465 19.7802 12.9195 21.2818C12.9195 21.2818 18.4232 39.5191 18.6919 41.7457C18.9499 43.962 11.5543 37.5722 11.5543 37.5722C10.3719 36.754 8.8132 36.4537 7.30829 36.8887C6.30859 37.1786 5.45939 37.7275 4.85742 38.4628C4.85742 38.4628 21.089 59.952 27.0979 60.6458V60.6665L29.0113 66L45.4579 60.8633L44.5335 55.9752C47.6078 51.0767 48.0271 45.2979 46.1889 39.3949Z" fill="black"/>
</g>
<defs>
<filter id="filter0_d" x="0.857422" y="0" width="50.4286" height="74" filterUnits="userSpaceOnUse" color-interpolation-filters="sRGB">
<feFlood flood-opacity="0" result="BackgroundImageFix"/>
<feColorMatrix in="SourceAlpha" type="matrix" values="0 0 0 0 0 0 0 0 0 0 0 0 0 0 0 0 0 0 127 0"/>
<feOffset dy="4"/>
<feGaussianBlur stdDeviation="2"/>
<feColorMatrix type="matrix" values="0 0 0 0 0 0 0 0 0 0 0 0 0 0 0 0 0 0 0.25 0"/>
<feBlend mode="normal" in2="BackgroundImageFix" result="effect1_dropShadow"/>
<feBlend mode="normal" in="SourceGraphic" in2="effect1_dropShadow" result="shape"/>
</filter>
</defs>
</svg>
