<svg width="101" height="91" viewBox="0 0 101 91" fill="none" xmlns="http://www.w3.org/2000/svg">
<g filter="url(#filter0_d)">
<path d="M72.3166 67.9677V42.8709H92.7043V76.663L72.3166 67.9677ZM34.045 13.835H68.0245V67.2401H34.045V13.835ZM8.29214 42.8673H29.7529V67.9928L8.29214 77.552V42.8673ZM29.7529 13.0644V38.5698H8.29214V5.10025L29.7529 13.0644ZM92.7043 38.5662H72.3166V13.0429L92.7043 5.13966V38.5662ZM96.9964 2.18624C96.9964 1.81348 96.9213 1.44077 96.7389 1.11818C96.1773 0.125351 95.0399 -0.225945 94.0778 0.143227L69.6519 9.54113H32.2816L6.89005 0.136086C5.9279 -0.21875 4.8012 0.139687 4.25037 1.1361C4.07154 1.45869 4 1.83141 4 2.20059V80.7885C4 81.2544 4.12161 81.7204 4.39345 82.0967C4.82624 82.6953 5.48437 83 6.14607 83C6.44294 83 6.73983 82.939 7.01882 82.8136L32.3568 71.5519H69.6197L94.017 81.8745C94.2852 81.9892 94.5714 82.043 94.8539 82.043C95.5228 82.043 96.1809 81.7311 96.6137 81.1326C96.882 80.7598 97 80.2975 97 79.8351L96.9964 2.18624Z" fill="black"/>
</g>
<g filter="url(#filter1_d)">
<path d="M57.2722 51.7359V51.6855C57.1714 51.6855 57.0202 51.6855 56.9194 51.6855C56.2641 51.6855 55.6593 51.7359 55.004 51.7359H46.0827V47.9556C46.0827 45.4859 48.0988 43.5202 50.5181 43.5202C50.9214 43.5202 51.3246 43.5706 51.6774 43.6714C52.0806 42.9153 52.5847 42.2097 53.1391 41.504C52.3327 41.1512 51.4758 41 50.5685 41C46.8387 41 43.8145 44.0242 43.8145 47.7036V51.7359H43.7641C42.8065 51.7359 42 52.5423 42 53.5V64.2359C42 65.1935 42.756 66 43.7641 66H57.2722C58.2298 66 59.0363 65.1935 59.0363 64.2359V53.4496C58.9859 52.4919 58.2298 51.7359 57.2722 51.7359ZM51.627 60.0524V60.9093C51.627 61.5141 51.123 62.0181 50.5181 62.0181C49.8629 62.0181 49.3589 61.5141 49.4093 60.8589V60.002C48.8548 59.5988 48.5524 58.9435 48.7036 58.1875C48.8548 57.381 49.5101 56.7762 50.3165 56.6754C51.4254 56.5242 52.3831 57.4315 52.3831 58.5403C52.3831 59.1452 52.0806 59.6996 51.627 60.0524Z" fill="black"/>
</g>
<defs>
<filter id="filter0_d" x="0" y="-3.8147e-06" width="101" height="91" filterUnits="userSpaceOnUse" color-interpolation-filters="sRGB">
<feFlood flood-opacity="0" result="BackgroundImageFix"/>
<feColorMatrix in="SourceAlpha" type="matrix" values="0 0 0 0 0 0 0 0 0 0 0 0 0 0 0 0 0 0 127 0"/>
<feOffset dy="4"/>
<feGaussianBlur stdDeviation="2"/>
<feColorMatrix type="matrix" values="0 0 0 0 0 0 0 0 0 0 0 0 0 0 0 0 0 0 0.25 0"/>
<feBlend mode="normal" in2="BackgroundImageFix" result="effect1_dropShadow"/>
<feBlend mode="normal" in="SourceGraphic" in2="effect1_dropShadow" result="shape"/>
</filter>
<filter id="filter1_d" x="38" y="41" width="25.0363" height="33" filterUnits="userSpaceOnUse" color-interpolation-filters="sRGB">
<feFlood flood-opacity="0" result="BackgroundImageFix"/>
<feColorMatrix in="SourceAlpha" type="matrix" values="0 0 0 0 0 0 0 0 0 0 0 0 0 0 0 0 0 0 127 0"/>
<feOffset dy="4"/>
<feGaussianBlur stdDeviation="2"/>
<feColorMatrix type="matrix" values="0 0 0 0 0 0 0 0 0 0 0 0 0 0 0 0 0 0 0.25 0"/>
<feBlend mode="normal" in2="BackgroundImageFix" result="effect1_dropShadow"/>
<feBlend mode="normal" in="SourceGraphic" in2="effect1_dropShadow" result="shape"/>
</filter>
</defs>
</svg>
