<svg width="78" height="90" viewBox="0 0 78 90" fill="none" xmlns="http://www.w3.org/2000/svg">
<g filter="url(#filter0_d)">
<path d="M14.545 23.2685C14.8418 23.2685 15.1385 23.1591 15.365 22.9327L22.0851 16.3493C22.5459 15.8963 22.5537 15.1544 22.1007 14.6936C21.6478 14.2329 20.9059 14.2251 20.4451 14.6781L13.725 21.2615C13.2643 21.7144 13.2565 22.4563 13.7094 22.9171C13.9398 23.1514 14.2404 23.2685 14.545 23.2685Z" fill="black"/>
<path d="M23.9248 22.3905C24.2255 22.3905 24.5223 22.2772 24.7527 22.0469L29.4969 17.3026C29.9538 16.8457 29.9538 16.1038 29.4969 15.6469C29.0401 15.1901 28.2982 15.1901 27.8413 15.6469L23.097 20.3912C22.6402 20.8481 22.6402 21.59 23.097 22.0469C23.3274 22.2772 23.6242 22.3905 23.9248 22.3905Z" fill="black"/>
<path d="M23.5607 27.4702L21.9168 29.2547C21.4795 29.731 21.5068 30.473 21.9832 30.9103C22.2097 31.1173 22.4908 31.2188 22.7758 31.2188C23.0921 31.2188 23.4045 31.0938 23.6388 30.84L25.2827 29.0555C25.72 28.5792 25.6927 27.8372 25.2163 27.3999C24.7399 26.9665 24.0019 26.9977 23.5607 27.4702Z" fill="black"/>
<path d="M41.4896 77.7048V42.9524H69.6039V77.7048H41.4896ZM8.29524 42.9524H37.1905V77.7048H8.29524V42.9524ZM37.1944 4.29524V38.6571H8.29915V4.29524H37.1944ZM69.6039 38.6571H41.4896V4.29524H69.6039V38.6571ZM71.8062 0H6.09296C4.93715 0 4 0.937134 4 2.09294V79.9071C4 81.0629 4.93715 82 6.09296 82H71.8023C72.9581 82 73.8952 81.0629 73.8952 79.9071V2.09294C73.8991 0.937134 72.962 0 71.8062 0Z" fill="black"/>
</g>
<path d="M63.3563 59.8815V55.8697C63.3563 52.209 60.2626 49.2002 56.4471 49.2002C52.6832 49.2002 49.5896 52.209 49.5896 55.8697V59.8815H49.538C48.5584 59.8815 47.7334 60.6838 47.7334 61.6366V72.3179C47.7334 73.2707 48.5068 74.0731 49.538 74.0731H63.3563C64.3359 74.0731 65.1609 73.2707 65.1609 72.3179V61.5865C65.1093 60.6337 64.3359 59.8815 63.3563 59.8815ZM57.5815 68.1557V69.0082C57.5815 69.61 57.0659 70.1115 56.4471 70.1115C55.7769 70.1115 55.2612 69.61 55.3128 68.9581V68.1056C54.7456 67.7044 54.4363 67.0525 54.591 66.3003C54.7456 65.4979 55.4159 64.8962 56.2409 64.7959C57.3752 64.6454 58.3549 65.5481 58.3549 66.6513C58.3549 67.2531 58.0455 67.8047 57.5815 68.1557ZM61.036 59.8815H51.9098V56.1205C51.9098 53.6632 53.9722 51.7075 56.4471 51.7075C58.9736 51.7075 60.9845 53.6632 60.9845 56.1205V59.8815H61.036Z" fill="black"/>
<defs>
<filter id="filter0_d" x="0" y="0" width="77.8952" height="90" filterUnits="userSpaceOnUse" color-interpolation-filters="sRGB">
<feFlood flood-opacity="0" result="BackgroundImageFix"/>
<feColorMatrix in="SourceAlpha" type="matrix" values="0 0 0 0 0 0 0 0 0 0 0 0 0 0 0 0 0 0 127 0"/>
<feOffset dy="4"/>
<feGaussianBlur stdDeviation="2"/>
<feColorMatrix type="matrix" values="0 0 0 0 0 0 0 0 0 0 0 0 0 0 0 0 0 0 0.25 0"/>
<feBlend mode="normal" in2="BackgroundImageFix" result="effect1_dropShadow"/>
<feBlend mode="normal" in="SourceGraphic" in2="effect1_dropShadow" result="shape"/>
</filter>
</defs>
</svg>
